<?xml version="1.0" encoding="UTF-8" standalone="no"?>
<svg
   xmlns:dc="http://purl.org/dc/elements/1.1/"
   xmlns:cc="http://creativecommons.org/ns#"
   xmlns:rdf="http://www.w3.org/1999/02/22-rdf-syntax-ns#"
   xmlns:svg="http://www.w3.org/2000/svg"
   xmlns="http://www.w3.org/2000/svg"
   xmlns:sodipodi="http://sodipodi.sourceforge.net/DTD/sodipodi-0.dtd"
   xmlns:inkscape="http://www.inkscape.org/namespaces/inkscape"
   height="450mm"
   width="450mm"
   viewBox="0 0 450 450"
   version="1.1"
   id="svg17230"
   sodipodi:docname="parenright.svg"
   inkscape:version="1.0.1 (0767f8302a, 2020-10-17)">
  <metadata
     id="metadata17234">
    <rdf:RDF>
      <cc:Work
         rdf:about="">
        <dc:format>image/svg+xml</dc:format>
        <dc:type
           rdf:resource="http://purl.org/dc/dcmitype/StillImage" />
      </cc:Work>
    </rdf:RDF>
  </metadata>
  <defs
     id="defs17232" />
  <sodipodi:namedview
     inkscape:document-units="mm"
     showgrid="true"
     id="namedview17222"
     inkscape:document-rotation="0"
     inkscape:zoom="0.89720887"
     inkscape:cx="527.24409"
     inkscape:cy="680.31496"
     inkscape:window-width="1310"
     inkscape:window-height="704"
     inkscape:window-x="56"
     inkscape:window-y="27"
     inkscape:window-maximized="1"
     inkscape:current-layer="">
    <inkscape:grid
       type="xygrid"
       units="mm"
       spacingx="3"
       spacingy="3"
       empspacing="8"
       id="grid17220" />
  </sodipodi:namedview>
  <g
     id=""
     inkscape:label="Outline"
     inkscape:groupmode="layer"
     name="">
    <g
       id="parenright"
       inkscape:label=""
       inkscape:groupmode=""
       name="">
      <path
         class=""
         id="path309"
         d="M 144 258 144 234 120 234 120 258"
         style="fill:#000000;fill-opacity:1;stroke:none;stroke-width:0.240105px;stroke-linecap:butt;stroke-linejoin:miter;stroke-opacity:1"
         transform="" />
      <path
         class=""
         id="path477"
         d="M 159 114 135 114 135 246 159 246"
         style="fill:#000000;fill-opacity:1;stroke:none;stroke-width:0.249451px;stroke-linecap:butt;stroke-linejoin:miter;stroke-opacity:1"
         transform="" />
      <path
         class=""
         id="ttf8.baseline.P"
         d="M 174,240 H 117"
         style="fill:#ff0000;fill-opacity:1;stroke:#ff0000;stroke-width:2;stroke-miterlimit:4;stroke-dasharray:none;stroke-opacity:1" />
      <path
         class=""
         id="path691"
         d="M 144 126 144 102 120 102 120 126"
         style="fill:#000000;fill-opacity:1;stroke:none;stroke-width:0.240105px;stroke-linecap:butt;stroke-linejoin:miter;stroke-opacity:1"
         transform="" />
    </g>
  </g>
</svg>
