<?xml version="1.0" encoding="UTF-8" standalone="no"?>
<svg
   xmlns:dc="http://purl.org/dc/elements/1.1/"
   xmlns:cc="http://creativecommons.org/ns#"
   xmlns:rdf="http://www.w3.org/1999/02/22-rdf-syntax-ns#"
   xmlns:svg="http://www.w3.org/2000/svg"
   xmlns="http://www.w3.org/2000/svg"
   xmlns:sodipodi="http://sodipodi.sourceforge.net/DTD/sodipodi-0.dtd"
   xmlns:inkscape="http://www.inkscape.org/namespaces/inkscape"
   height="450mm"
   width="450mm"
   viewBox="0 0 450 450"
   version="1.1"
   id="svg17854"
   sodipodi:docname="period.svg"
   inkscape:version="1.0.1 (0767f8302a, 2020-10-17)">
  <metadata
     id="metadata17858">
    <rdf:RDF>
      <cc:Work
         rdf:about="">
        <dc:format>image/svg+xml</dc:format>
        <dc:type
           rdf:resource="http://purl.org/dc/dcmitype/StillImage" />
      </cc:Work>
    </rdf:RDF>
  </metadata>
  <defs
     id="defs17856" />
  <sodipodi:namedview
     inkscape:document-units="mm"
     showgrid="true"
     id="namedview17848"
     inkscape:document-rotation="0"
     inkscape:zoom="4.0439935"
     inkscape:cx="488.1591"
     inkscape:cy="861.73228"
     inkscape:window-width="1310"
     inkscape:window-height="704"
     inkscape:window-x="56"
     inkscape:window-y="27"
     inkscape:window-maximized="1"
     inkscape:current-layer="">
    <inkscape:grid
       type="xygrid"
       units="mm"
       spacingx="3"
       spacingy="3"
       empspacing="8"
       id="grid17846" />
  </sodipodi:namedview>
  <g
     id=""
     inkscape:label="Outline"
     inkscape:groupmode="layer"
     name="">
    <g
       id="u002E"
       inkscape:label=""
       inkscape:groupmode=""
       name="">
      <path
         class=""
         id="ttf8.baseline.u002C"
         d="M 153,240 H 111"
         style="fill:#ff0000;fill-opacity:1;stroke:#ff0000;stroke-width:2;stroke-miterlimit:4;stroke-dasharray:none"
         sodipodi:nodetypes="cc" />
      <path
         class=""
         id="path15"
         d="M 144 216 120 216 120 240 144 240"
         style="fill:#000000;fill-opacity:1;stroke:none;stroke-width:0.167381px;stroke-linecap:butt;stroke-linejoin:miter;stroke-opacity:1"
         transform="" />
    </g>
  </g>
</svg>
