<?xml version="1.0" encoding="UTF-8" standalone="no"?>
<svg
   xmlns:dc="http://purl.org/dc/elements/1.1/"
   xmlns:cc="http://creativecommons.org/ns#"
   xmlns:rdf="http://www.w3.org/1999/02/22-rdf-syntax-ns#"
   xmlns:svg="http://www.w3.org/2000/svg"
   xmlns="http://www.w3.org/2000/svg"
   xmlns:sodipodi="http://sodipodi.sourceforge.net/DTD/sodipodi-0.dtd"
   xmlns:inkscape="http://www.inkscape.org/namespaces/inkscape"
   height="450mm"
   width="450mm"
   viewBox="0 0 450 450"
   version="1.1"
   id="svg24328"
   sodipodi:docname="quotedblright.svg"
   inkscape:version="1.0.1 (0767f8302a, 2020-10-17)">
  <metadata
     id="metadata24332">
    <rdf:RDF>
      <cc:Work
         rdf:about="">
        <dc:format>image/svg+xml</dc:format>
        <dc:type
           rdf:resource="http://purl.org/dc/dcmitype/StillImage" />
      </cc:Work>
    </rdf:RDF>
  </metadata>
  <defs
     id="defs24330" />
  <sodipodi:namedview
     inkscape:document-units="mm"
     showgrid="true"
     id="namedview24319"
     inkscape:document-rotation="0"
     inkscape:zoom="1.0849968"
     inkscape:cx="553.70436"
     inkscape:cy="663.30709"
     inkscape:window-width="1310"
     inkscape:window-height="704"
     inkscape:window-x="56"
     inkscape:window-y="27"
     inkscape:window-maximized="1"
     inkscape:current-layer="">
    <inkscape:grid
       type="xygrid"
       units="mm"
       spacingx="3"
       spacingy="3"
       empspacing="8"
       id="grid24317" />
  </sodipodi:namedview>
  <g
     id=""
     inkscape:label="Outline"
     inkscape:groupmode="layer"
     name="">
    <g
       id="quotedblright"
       inkscape:label=""
       inkscape:groupmode=""
       name="">
      <path
         class=""
         id="ttf8.baseline.u002C"
         d="M 204,240 H 108"
         style="fill:#ff0000;fill-opacity:1;stroke:#ff0000;stroke-width:2;stroke-miterlimit:4;stroke-dasharray:none"
         sodipodi:nodetypes="cc" />
      <path
         class=""
         id="path15"
         d="M 144 111 120 111 120 138 144 138"
         style="fill:#000000;fill-opacity:1;stroke:none;stroke-width:0.167381px;stroke-linecap:butt;stroke-linejoin:miter;stroke-opacity:1"
         transform="" />
      <path
         class=""
         id="path183"
         d="M 192 111 168 111 168 138 192 138"
         style="fill:#000000;fill-opacity:1;stroke:none;stroke-width:0.167381px;stroke-linecap:butt;stroke-linejoin:miter;stroke-opacity:1"
         transform="" />
      <path
         class=""
         id="path1046"
         d="M 192 138 170.091 128.201 159 153 180.909 162.799"
         style="fill:#000000;fill-opacity:1;stroke:none;stroke-width:0.16378px;stroke-linecap:butt;stroke-linejoin:miter;stroke-opacity:1"
         transform="" />
      <path
         class=""
         id="path1048"
         d="M 144 138 122.091 128.201 111 153 132.909 162.799"
         style="fill:#000000;fill-opacity:1;stroke:none;stroke-width:0.16378px;stroke-linecap:butt;stroke-linejoin:miter;stroke-opacity:1"
         transform="" />
    </g>
  </g>
</svg>
