<?xml version="1.0" encoding="UTF-8" standalone="no"?>
<svg
   xmlns:dc="http://purl.org/dc/elements/1.1/"
   xmlns:cc="http://creativecommons.org/ns#"
   xmlns:rdf="http://www.w3.org/1999/02/22-rdf-syntax-ns#"
   xmlns:svg="http://www.w3.org/2000/svg"
   xmlns="http://www.w3.org/2000/svg"
   xmlns:sodipodi="http://sodipodi.sourceforge.net/DTD/sodipodi-0.dtd"
   xmlns:inkscape="http://www.inkscape.org/namespaces/inkscape"
   height="450mm"
   width="450mm"
   viewBox="0 0 450 450"
   version="1.1"
   id="svg27923"
   sodipodi:docname="sterling.svg"
   inkscape:version="1.0.1 (0767f8302a, 2020-10-17)">
  <metadata
     id="metadata27927">
    <rdf:RDF>
      <cc:Work
         rdf:about="">
        <dc:format>image/svg+xml</dc:format>
        <dc:type
           rdf:resource="http://purl.org/dc/dcmitype/StillImage" />
      </cc:Work>
    </rdf:RDF>
  </metadata>
  <defs
     id="defs27925" />
  <sodipodi:namedview
     inkscape:document-units="mm"
     showgrid="true"
     id="namedview27913"
     inkscape:document-rotation="0"
     inkscape:zoom="1.0069394"
     inkscape:cx="629.29134"
     inkscape:cy="648.18898"
     inkscape:window-width="1310"
     inkscape:window-height="704"
     inkscape:window-x="56"
     inkscape:window-y="27"
     inkscape:window-maximized="1"
     inkscape:current-layer="">
    <inkscape:grid
       type="xygrid"
       units="mm"
       spacingx="3"
       spacingy="3"
       empspacing="8"
       id="grid27911" />
  </sodipodi:namedview>
  <g
     id=""
     inkscape:label="Outline"
     inkscape:groupmode="layer"
     name="">
    <g
       id="u00A3"
       inkscape:label=""
       inkscape:groupmode=""
       name="">
      <path
         class=""
         id="ttf8.baseline.L"
         d="M 225,240 H 111"
         style="fill:none;fill-opacity:1;stroke:#ff0000;stroke-width:2;stroke-miterlimit:4;stroke-dasharray:none"
         sodipodi:nodetypes="cc" />
      <path
         class=""
         id="path15"
         d="M 159 135 135 135 135 240 159 240"
         style="fill:#000000;fill-opacity:1;stroke:#000000;stroke-width:0.264583px;stroke-linecap:butt;stroke-linejoin:miter;stroke-opacity:1"
         transform="" />
      <path
         class=""
         id="path307"
         d="M 216 240 216 216 120 216 120 240"
         style="fill:#000000;fill-opacity:1;stroke:#000000;stroke-width:0.264583px;stroke-linecap:butt;stroke-linejoin:miter;stroke-opacity:1"
         transform="" />
      <path
         class=""
         id="ttf8.base.top"
         d="M 168 114 168 102"
         style="fill:none;stroke:#ff0000;stroke-width:2;stroke-linecap:butt;stroke-linejoin:miter;stroke-miterlimit:4;stroke-dasharray:none;stroke-opacity:1"
         transform="" />
      <path
         class=""
         id="path1649"
         d="M 201 144 201 120 150 120 150 144"
         style="fill:#000000;fill-opacity:1;stroke:#000000;stroke-width:0.264583px;stroke-linecap:butt;stroke-linejoin:miter;stroke-opacity:1"
         transform="" />
      <path
         class=""
         id="path1651"
         d="M 192 192 192 168 150 168 150 192"
         style="fill:#000000;fill-opacity:1;stroke:#000000;stroke-width:0.264583px;stroke-linecap:butt;stroke-linejoin:miter;stroke-opacity:1"
         transform="" />
    </g>
  </g>
</svg>
