<svg xmlns="http://www.w3.org/2000/svg" height="450mm" width="450mm" viewBox="0 0 450 450">
  <namedview xmlns="http://sodipodi.sourceforge.net/DTD/sodipodi-0.dtd" xmlns:inkscape="http://www.inkscape.org/namespaces/inkscape" inkscape:document-units="mm" showgrid="true">
    <grid xmlns="http://www.inkscape.org/namespaces/inkscape" type="xygrid" units="mm" spacingx="3" spacingy="3" empspacing="8"></grid>
  </namedview>
  <g id="" xmlns:inkscape="http://www.inkscape.org/namespaces/inkscape" inkscape:label="Outline" inkscape:groupmode="layer" name="">
    <g id="u0300" inkscape:label="" inkscape:groupmode="" name="">
      <path class="" id="rect256" d="M 186 198 175.197 219.431 216 240 226.803 218.569" style="fill:#000000;stroke-width:0.499999;stroke-linecap:round" transform=""></path>
      <path class="" id="ttf8.baseline.W" d="M 204 240" style="fill:none;fill-opacity:1;stroke:#ff0000;stroke-width:2;stroke-linecap:square;stroke-miterlimit:4;stroke-dasharray:none" transform=""></path>
      <path class="" id="ttf8.mark.top" d="M 204 222 204 240" style="fill:none;stroke:#ff0000;stroke-width:2;stroke-linecap:butt;stroke-linejoin:miter;stroke-miterlimit:4;stroke-dasharray:none;stroke-opacity:1" transform=""></path>
    </g>
  </g>
</svg>